###################################################
# 2017/02/14 - PsychOS 2.7.0 - Python GUI builder #
###################################################

*After adding a Python repository, I found packages Glade and python-wxGlade for building Python interfaces
