#####################################################
# 2017/01/03 - PsychOS 2.7.0 - Audio analysis tools #
#####################################################
*Found two different kinds of real-time audio analysis tools
	*Tartini (newer fork on my Github)
	*music-visualization (on my Github)
		*Java
