######################################################################
# 2017/04/06 - PsychOS 2.7.1 - climenu bashmount and audio recording #
######################################################################

*Added bashmount to climenu

*Need to incorperate espeak and figure a way to record audio
