#########################################
# 2016/10/18 - PsychOS 2.6.1 - Printing #
#########################################

*This printing thing needs a solution pronto -_-!!!
	*[Update 2017/03/03] - I still have not found an easy solution for setting up a printer
