##################################################################################
# PsychOS 09/17/2016 - PsychOS 2.5.7 - External HD as home partition is possible #
##################################################################################

* Experimenting with external USB hard drive as /home partition

* May be able to install the source code version of xnConvert

* Forget to add VeraCrypt binary to /usr/bin/

* VLC crashing for certain file formats, but Parole is doing great

* USB hard drive as /home is completely possible
