###############################################################
# 2017/03/22 - PsychOS 2.7.0 - Idiot proofing and mps-youtube #
###############################################################

*Command line presentation apps?

*Need to go back and edit ./image-edit and ./batch-image-edit to make then more dialog friendly, aka "idiot-
	proofing"

*Found a really cool front-end for youtube-dl called mps-youtube
	*Launch via mpsyt
	*sudo pip install mps-youtube
	*sudo pip install youtube-dl
	*Just plays audio by default, but you can download video too
