###############################################################
# PsychOS 08/18/2016 - PsychOS 2.5.6 - Copying .config folder #
###############################################################

* Copy the .config folder into a home directory is only going to work 
  for the root user; aka, Live.
