###########################################
# 2017/01/09 - PsychOS 2.7.0 - Translator #
###########################################
*I found a really neet way to highlight any text and then use a keyboard shortcut to trigger a zenity popup with a translation.
	*Requires:
		- zenity
		- wget
		- xsel
