##############################################################
# 2019/06/25 - PsychOS 3.4.6 - Working on a better installer #
##############################################################

I've started working on a better installer for PsychOS. So far, so good,
but I really haven't gotten to the meaty part yet.
