##################################################
# PsychOS 04/04/2016 - Linux Installer: Calamares #
##################################################

* I found a potential replacement/alternative for the ever-failing previous 
  Linux installers used in the past. This installer is called Calamares.
  Perhaps the installer builds itself around an already previously 
  compiled ISO, I hope.
