##################################################
# 2016/10/22 - PsychOS 2.6.1 - PsychOS wiped out #
##################################################

!!!PsychOS on the SuseStudio site finally wiped itself out. Luckily, I made a clone.
