############################################################
# 2019/03/07 - PsychOS 3.3.7 - StreamPi GUI and BristolCLI #
############################################################

Been working on StreamPi GUI some more.

Need a CLI for Bristol synths that I'm going to call "BristolCLI."