################################################################
# 2016/12/19 - PsychOS 2.7.0 - Angry IP Scanner & livestreamer #
################################################################
*Installed Angry IP Scanner as ipscan; need to keep an eye out for a .desktop file, also for kruler
*Add livestreamer to repository, but don't install it by default
