#################################################################################
# PsychOS 09/26/2016 - PsychOS 2.6.0 - Default power-management settings issues #
#################################################################################

* !!! Default power management settings got messed up somehow

* A PsychOSifier script for Ubuntu/Debian fans?

* Add reference based programs like a periodic table and math formulas cheat sheet.

* I think power management settings might be broken from the last attempted "fix";
  I'll have to just remove the file and use what I did the first time.
