###############################################
# 2017/02/09 - PsychOS 2.7.0 - Upgrade script #
###############################################

*Started working on Upgrade script for PsychOS 2.7.0
	- Installs Filezilla and Mendeley from web
	- Removes faulty repositories and adds new ones
	- Software added

*Need to work on climenu programs as well
