#######################################################################
# 2016/10/23 - PsychOS 2.6.1 - SuseStudio issues and VeraCrypt update #
#######################################################################

*The clone isn't helping. I'm probably going to have to recreate the whole damn thing using the configuration file. I've also managed to save my RPMs and other files.

*Really need to update VeraCrypt
