################################################
# 2017/05/13 - PsychOS 2.7.1 - RSS and MyNotex #
################################################

*Need to look at FeedReader as a replacement for Liferea since it seems to also support services like Feedly.

*Need to add a way to update MyNotex from Upgrade script.