###############################################################
# 2017/02/15 - PsychOS 2.7.0 - Screenshot and screen recorder #
###############################################################

*Software need looking into:
	- Shots -> Electron-based screenshot app with immediate annotation options
	- Green Record -> Python and GTK+ 3 lightweight screen recorder
