##############################################################
# 2017/03/30 - PsychOS 2.7.0 - Idiot proofing and split file #
##############################################################

*I hate to do it, but I may have to remove batch image editing for the time being; this is because it still needs a lot of work idiot proofing via dialog; too many "echos"

*May add * to both sides of batch editting items in climenu to cut down on accidental selection

*Split Menu
	*split by size
	*Split by number of lines
	*Show file size / # of lines in asking
	*Have to write a script to know when to use b/kb/mb/ etc.
