###########################################################
# 2017/05/02 - PsychOS 2.7.1 - Bluetooth added to climenu #
###########################################################

*Added Bluetooth management of sorts to climenu